Group19_Proposal_Final
…
  X3 = col_double(),
  X4 = col_double(),
  X5 = col_double(),
  X6 = col_double(),
  X7 = col_double(),
  X8 = col_double(),
  X9 = col_double(),
  X10 = col_double(),
  X11 = col_double(),
  X12 = col_character(),
  X13 = col_character(),
  X14 = col_double()
)

# A tibble: 303 x 14
      X1    X2    X3    X4    X5    X6    X7    X8    X9   X10   X11 X12   X13  
   <dbl> <dbl> <dbl> <dbl> <dbl> <dbl> <dbl> <dbl> <dbl> <dbl> <dbl> <chr> <chr>
 1    63     1     1   145   233     1     2   150     0   2.3     3 0.0   6.0  
 2    67     1     4   160   286     0     2   108     1   1.5     2 3.0   3.0  
 3    67     1     4   120   229     0     2   129     1   2.6     2 2.0   7.0  
 4    37     1     3   130   250     0     0   187     0   3.5     3 0.0   3.0  
 5    41     0     2   130   204     0     2   172     0   1.4     1 0.0   3.0  
 6    56     1     2   120   236     0     0   178     0   0.8     1 0.0   3.0  
 7    62     0     4   140   268     0     2   160     0   3.6     3 2.0   3.0  
 8    57     0     4   120   354     0     0   163     1   0.6     1 0.0   3.0  
 9    63     1     4   130   254     0     2   147     0   1.4     2 1.0   7.0  
10    53     1     4   140   203     1     2   155     1   3.1     3 0.0   7.0  
#  with 293 more rows, and 1 more variable: X14 <dbl>
…
            slope = "X11",
            ca = "X12",
            thal = "X13",
            disease_status = "X14") %>%
    select(age, 
           resting_bp, 
           disease_status, 
           heartrate_max) %>%
    mutate(heartrate_max = as.integer(heartrate_max), 
           resting_bp = as.integer(resting_bp)) %>%
    filter(resting_bp != "?") %>%
    arrange(age) %>%
    print(1:10)

# A tibble: 303 x 4
     age resting_bp disease_status heartrate_max
   <dbl>      <int>          <dbl>         <int>
 1    29        130              0           202
 2    34        118              0           174
 3    34        118              0           192
 4    35        138              0           182
 5    35        120              1           130
 6    35        126              1           156
 7    35        122              0           174
 8    37        130              0           187
 9    37        120              0           170
10    38        120              4           182
#  with 293 more rows
…
1 = heart disease present

In [4]:

clean_heart_data["disease_status"][clean_heart_data["disease_status"] == 1] <- 5
clean_heart_data["disease_status"][clean_heart_data["disease_status"] == 2] <- 5
clean_heart_data["disease_status"][clean_heart_data["disease_status"] == 3] <- 5
clean_heart_data["disease_status"][clean_heart_data["disease_status"] == 4] <- 5
clean_heart_data["disease_status"][clean_heart_data["disease_status"] == 5] <- 1

clean_heart_data <- clean_heart_data %>%
    mutate(disease_status = as_factor(disease_status)) %>%
    print(1:10)

# A tibble: 303 x 4
     age resting_bp disease_status heartrate_max
   <dbl>      <int> <fct>                  <int>
 1    29        130 0                        202
 2    34        118 0                        174
 3    34        118 0                        192
 4    35        138 0                        182
 5    35        120 1                        130
 6    35        126 1                        156
 7    35        122 0                        174
 8    37        130 0                        187
 9    37        120 0                        170
10    38        120 1                        182
#  with 293 more rows

Finally, we must set a seed to guarantee reproducibility and then split our data into training and testing datasets.

In [5]:

set.seed(999)

heart_split <- initial_split(clean_heart_data, prop = .75, strata = disease_status)  
heart_train <- training(heart_split)   
heart_test <- testing(heart_split)

print(heart_train, 1:228)

# A tibble: 228 x 4
     age resting_bp disease_status heartrate_max
   <dbl>      <int> <fct>                  <int>
 1    29        130 0                        202
 2    34        118 0                        192
 3    35        138 0                        182
 4    35        120 1                        130
 5    35        122 0                        174
 6    37        130 0                        187
 7    37        120 0                        170
 8    38        120 1                        182
 9    38        138 0                        173
10    39        138 0                        152
#  with 218 more rows
…
